\beamer@sectionintoc {1}{What is Debian?}{3}{0}{1}
\beamer@sectionintoc {2}{Core Components}{10}{0}{2}
\beamer@sectionintoc {3}{Packages Web \& Networking Services}{12}{0}{3}
\beamer@sectionintoc {5}{Help \& Further Reading}{18}{0}{4}
\beamer@sectionintoc {6}{Wrap up and credits}{24}{0}{5}
